<svg xmlns="http://www.w3.org/2000/svg" xmlns:xlink="http://www.w3.org/1999/xlink" width="49" height="48" viewBox="0 0 49 48">
    <defs>
        <filter id="5xl233be4a" width="115.9%" height="115.9%" x="-8%" y="-5.7%" filterUnits="objectBoundingBox">
            <feOffset dy="1" in="SourceAlpha" result="shadowOffsetOuter1"/>
            <feGaussianBlur in="shadowOffsetOuter1" result="shadowBlurOuter1" stdDeviation="1"/>
            <feComposite in="shadowBlurOuter1" in2="SourceAlpha" operator="out" result="shadowBlurOuter1"/>
            <feColorMatrix in="shadowBlurOuter1" values="0 0 0 0 0 0 0 0 0 0 0 0 0 0 0 0 0 0 0.06 0"/>
        </filter>
        <path id="qne48eg97b" d="M22 0c12.15 0 22 9.85 22 22s-9.85 22-22 22S0 34.15 0 22 9.85 0 22 0z"/>
    </defs>
    <g fill="none" fill-rule="evenodd">
        <g>
            <g>
                <g>
                    <g transform="translate(-1182 -307) translate(1075 156) translate(109.5 152)">
                        <use fill="#000" filter="url(#5xl233be4a)" xlink:href="#qne48eg97b"/>
                        <use fill="#EAC65D" fill-opacity=".19" xlink:href="#qne48eg97b"/>
                    </g>
                    <path fill="#4285F4" fill-rule="nonzero" d="M33.64 22.272c0-.85-.076-1.668-.22-2.453H22.063v4.64h6.491c-.27 1.484-1.141 2.793-2.408 3.623v3.011h3.898c2.282-2.09 3.598-5.153 3.598-8.81v-.01z" transform="translate(-1182 -307) translate(1075 156) translate(109.5 152)"/>
                    <path fill="#34A853" fill-rule="nonzero" d="M22.062 34c3.256 0 5.988-1.073 7.981-2.908l-3.898-3.01c-1.078.72-2.46 1.143-4.083 1.143-3.142 0-5.801-2.109-6.75-4.945h-4.03v3.109C13.33 31.443 17.503 34 22.063 34z" transform="translate(-1182 -307) translate(1075 156) translate(109.5 152)"/>
                    <path fill="#FBBC05" fill-rule="nonzero" d="M15.313 24.28c-.241-.72-.38-1.49-.38-2.28 0-.79.139-1.56.38-2.28v-3.109h-4.03C10.438 18.283 9.999 20.13 10 22c0 1.937.465 3.77 1.283 5.389l4.03-3.109z" transform="translate(-1182 -307) translate(1075 156) translate(109.5 152)"/>
                    <path fill="#EA4335" fill-rule="nonzero" d="M22.062 14.772c1.77 0 3.36.607 4.611 1.796l3.458-3.442C28.043 11.189 25.311 10 22.061 10c-4.56-.002-8.731 2.557-10.778 6.611l4.03 3.109c.948-2.838 3.607-4.947 6.749-4.947v-.001z" transform="translate(-1182 -307) translate(1075 156) translate(109.5 152)"/>
                </g>
            </g>
        </g>
    </g>
</svg>
