<?xml version="1.0" encoding="utf-8"?>
<!-- Generator: Adobe Illustrator 23.0.5, SVG Export Plug-In . SVG Version: 6.00 Build 0)  -->
<svg version="1.1" id="Layer_1" xmlns="http://www.w3.org/2000/svg" xmlns:xlink="http://www.w3.org/1999/xlink" x="0px" y="0px"
	 viewBox="0 0 50 50" style="enable-background:new 0 0 50 50;" xml:space="preserve">
<style type="text/css">
	.st0{fill-rule:evenodd;clip-rule:evenodd;fill:#1D2642;}
	.st1{fill:url(#Path_48_1_);}
	.st2{fill:#FFFFFF;}
</style>
<g>
	<g id="Group_6" transform="translate(0 -0.125)">
		<path id="Path_47" class="st0" d="M5,0.1h40c2.8,0,5,2.2,5,5v40c0,2.8-2.2,5-5,5H5c-2.8,0-5-2.2-5-5v-40C0,2.3,2.3,0.1,5,0.1z"/>
		
			<linearGradient id="Path_48_1_" gradientUnits="userSpaceOnUse" x1="-247.3404" y1="11.9809" x2="-248.2064" y2="12.4809" gradientTransform="matrix(50 0 0 50 12416.5996 -588.1)">
			<stop  offset="0" style="stop-color:#2766EA"/>
			<stop  offset="0.78" style="stop-color:#009DFF"/>
			<stop  offset="0.98" style="stop-color:#009DFF"/>
		</linearGradient>
		<path id="Path_48" class="st1" d="M5,0.1h40c2.8,0,5,2.2,5,5v40c0,2.8-2.2,5-5,5H5c-2.8,0-5-2.2-5-5v-40C0,2.3,2.3,0.1,5,0.1z"/>
	</g>
	<g>
		<g>
			<path class="st2" d="M34.9,40.5c-1.4,0-2.5-1.1-2.5-2.5V21.4c0-1.4,1.1-2.5,2.5-2.5s2.5,1.1,2.5,2.5V38
				C37.3,39.4,36.2,40.5,34.9,40.5z"/>
		</g>
		<g>
			<path class="st2" d="M24.9,40.5c-1.4,0-2.5-1.1-2.5-2.5V11.4c0-1.4,1.1-2.5,2.5-2.5s2.5,1.1,2.5,2.5V38
				C27.4,39.4,26.3,40.5,24.9,40.5z"/>
		</g>
		<g>
			<path class="st2" d="M14.9,40.5c-1.4,0-2.5-1.1-2.5-2.5V28c0-1.4,1.1-2.5,2.5-2.5s2.5,1.1,2.5,2.5v10
				C17.4,39.4,16.3,40.5,14.9,40.5z"/>
		</g>
	</g>
</g>
</svg>
